"Client Account ID",Brand,Agent,"Deposit Date",Amount,"Payment Method",Type,"Withdrawal type",Department
,Quantum,"Jake Avant",2021-05-20,€250.00,Wire,Deposit,,Conversion
,Quantum,"Jake Avant",2021-05-20,€250.00,Wire,Deposit,,Conversion
,Quantum,"Jake Avant",2021-05-20,€250.00,"Coini Exchange",Deposit,,Conversion
,Quantum,"Jake Avant",2021-05-20,€250.00,"Coini Exchange",Deposit,,Conversion
,Quantum,"Jake Avant",2021-05-20,€250.00,"Coini Exchange",Deposit,,Conversion
,Quantum,"Jake Avant",2021-05-20,€250.00,"Coini Exchange",Deposit,,Conversion
,Quantum,"Jake Avant",2021-05-20,€250.00,"Coini Exchange",Deposit,,Conversion
,Quantum,"Jake Avant",2021-05-20,€250.00,"Coini Exchange",Deposit,,Conversion
,Quantum,"Matt Baas",2021-05-20,€250.00,Wire,Deposit,,Conversion
,Quantum,"Matt Baas",2021-05-20,€246.50,BTC,Deposit,,Conversion
,Quantum,"Matt Baas",2021-05-20,€282.03,BTC,Deposit,,Conversion
,Quantum,"Matt Baas",2021-05-20,€250.00,"Coini Exchange",Deposit,,Conversion
,Quantum,"Matt Baas",2021-05-20,€250.00,"Coini Exchange",Deposit,,Conversion
,Quantum,"Matt Baas",2021-05-20,€250.00,"Coini Exchange",Deposit,,Conversion
,Quantum,"Matt Baas",2021-05-20,€250.00,"Coini Exchange",Deposit,,Conversion
,Quantum,"Matt Baas",2021-05-20,€250.00,"Coini Exchange",Deposit,,Conversion
,Quantum,"Matt Baas",2021-05-20,€250.00,"Coini Exchange",Deposit,,Conversion
,Quantum,"Matt Baas",2021-05-20,€250.00,"Coini Exchange",Deposit,,Conversion
,Quantum,"Matt Baas",2021-05-20,€250.00,"Coini Exchange",Deposit,,Conversion
,Quantum,"Matt Baas",2021-05-20,€250.00,"Coini Exchange",Deposit,,Conversion
,Quantum,"Mike Blanc",2021-05-20,€250.00,Wire,Deposit,,Conversion
,Quantum,"Ryan Cross",2021-05-20,€246.56,BTC,Deposit,,Conversion
,Quantum,"Ryan Cross",2021-05-20,€250.00,"Coini Exchange",Deposit,,Conversion
,Quantum,"Ryan Cross",2021-05-20,€250.00,"Coini Exchange",Deposit,,Conversion
,Quantum,"Ryan Cross",2021-05-20,€250.00,"Coini Exchange",Deposit,,Conversion
,Quantum,"Ryan Cross",2021-05-20,€250.00,"Coini Exchange",Deposit,,Conversion
,Quantum,"Lina Becker",2021-05-20,"€2,990.00",Wire,Deposit,,Retention
,Quantum,"Burak Freeman",2021-05-20,"€3,030.94",BTC,Deposit,,Retention
,Quantum,"Burak Freeman",2021-05-20,€89.99,BTC,Deposit,,Retention
,Quantum,"Burak Freeman",2021-05-20,"€4,538.26",BTC,Deposit,,Retention
,Quantum,"Valentina Blanke",2021-05-20,"€6,882.00",BTC,Deposit,,Retention
,Quantum,"Burak Freeman",2021-05-20,€95.09,BTC,Deposit,,Retention
,Quantum,"Peter Skawinski",2021-05-20,"€2,326.32",BTC,Deposit,,Retention
,Quantum,"William Johns",2021-05-20,"€1,284.65",BTC,Deposit,,Retention
,Quantum,"Valentina Blanke",2021-05-20,€974.11,BTC,Deposit,,Retention
,Quantum,"William Johns",2021-05-20,€623.87,BTC,Deposit,,Retention
,Quantum,"Valentina Blanke",2021-05-20,€250.00,"Coini Exchange",Deposit,,Retention
,Quantum,"Valentina Blanke",2021-05-20,€590.78,BTC,Deposit,,Retention
,Quantum,"Valentina Blanke",2021-05-20,€474.77,BTC,Deposit,,Retention
,Quantum,"Burak Freeman",2021-05-20,"€16,520.45",BTC,Deposit,,Retention
,Quantum,"Valentina Blanke",2021-05-20,"€2,960.51",BTC,Deposit,,Retention
,Quantum,"Valentina Blanke",2021-05-20,"€2,481.70",BTC,Deposit,,Retention
,Quantum,"Anna Engel",2021-05-20,€980.60,ETH,Deposit,,Retention
,Quantum,"Valentina Blanke",2021-05-20,"€16,114.49",BTC,Deposit,,Retention
,Quantum,"Frank Mayer",2021-05-20,"€5,017.44",ETH,Deposit,,Retention
,Quantum,"Burak Freeman",2021-05-20,€712.84,BTC,Withdrawal,,Retention
,Quantum,"Anna Engel",2021-05-20,"€2,988.00",Wire,Deposit,,Retention
,Quantum,"Burak Freeman",2021-05-21,"€9,048.34",BTC,Deposit,,Retention
,Quantum,"Burak Freeman",2021-05-21,"€2,006.58",BTC,Withdrawal,,Retention
,Quantum,"Burak Freeman",2021-05-21,€106.88,BTC,Withdrawal,,Retention
,Quantum,"Burak Freeman",2021-05-21,"€1,510.13",BTC,Deposit,,Retention
,Quantum,"Frank Mayer",2021-05-21,€666.93,BTC,Withdrawal,,Retention
,Quantum,"Lina Becker",2021-05-21,"€2,006.76",BTC,Withdrawal,,Retention
,Quantum,"Maggie Gonzalez",2021-05-21,€324.73,BTC,Withdrawal,,Retention
,Quantum,"Retention Trash",2021-05-21,€250.00,Xpate,Withdrawal,,Retention
,Quantum,"Matt Baas",2021-05-21,€250.00,"CC - Bridgerpay",Deposit,,Conversion
,Quantum,"Burak Freeman",2021-05-24,"€49,029.11",BTC,Deposit,,Retention
,Quantum,"Burak Freeman",2021-05-24,"€1,023.99",BTC,Withdrawal,Withdrawal,Retention
,Quantum,"Lina Becker",2021-05-24,"€14,205.00",Wire,Deposit,,Retention
,Quantum,"Peter Skawinski",2021-05-24,"€7,800.00",Wire,Deposit,,Retention
,Quantum,"Frank Mayer",2021-05-25,"€4,978.47",ETH,Deposit,,Retention
,Quantum,"Burak Freeman",2021-05-25,"€1,510.13",BTC,Withdrawal,Withdrawal,Retention
,Quantum,"Burak Freeman",2021-05-25,"€48,163.99",ETH,Deposit,,Retention
,Quantum,"Ryan Cross",2021-05-25,€250.00,BTC,Deposit,,Conversion
,Quantum,"Frank Mayer",2021-05-25,"€4,941.59",ETH,Deposit,,Retention
,Quantum,"Burak Freeman",2021-05-25,"€4,583.49",BTC,Deposit,,Retention
,Quantum,"Jake Avant",2021-05-26,€250.00,"Coini Exchange",Deposit,,Conversion
,Quantum,"Lina Becker",2021-05-26,"€4,982.89",BTC,Deposit,,Retention
,Quantum,"Retention Trash",2021-05-26,€204.83,BTC,Withdrawal,Withdrawal,Retention
,Quantum,"William Johns",2021-05-27,€106.27,BTC,Withdrawal,Withdrawal,Retention
,Quantum,"Peter Skawinski",2021-05-27,"€1,452.98",BTC,Deposit,,Retention
,Quantum,"Ryan Cross",2021-05-27,€250.00,BTC,Deposit,,Conversion
,Quantum,"Jake Avant",2021-05-27,€250.00,"Coini Exchange",Deposit,,Conversion
,Quantum,"Tony Rickars",2021-05-28,€250.00,BTC,Deposit,,Conversion
,Quantum,"Ryan Cross",2021-05-28,€250.00,BTC,Deposit,,Conversion
,Quantum,"Jake Avant",2021-05-28,€250.00,"Coini Exchange",Deposit,,Conversion
,Quantum,"Frank Mayer",2021-05-28,"€109,372.07",ETH,Deposit,,Retention
,Quantum,"Jake Avant",2021-05-31,€250.00,"Coini Exchange",Deposit,,Conversion
,Quantum,"Matt Baas",2021-05-31,€251.47,BTC,Deposit,,Conversion
,Quantum,"Gabriel Orlowski",2021-05-31,€250.00,Jubiter,Deposit,,Conversion
,Quantum,"Jake Avant",2021-05-31,€250.00,Xpate,Deposit,,Conversion
,Quantum,"Tanja Schulte",2021-05-31,€500.00,Wire,Deposit,,Conversion
,Quantum,"Jake Avant",2021-05-31,€248.53,BTC,Deposit,,Conversion
,Quantum,"Retention Trash",2021-06-01,€255.65,BTC,Withdrawal,Refund,Retention
,Quantum,"Ryan Cross",2021-06-01,€250.00,"Coini Exchange",Deposit,,Conversion
,Quantum,"Gabriel Orlowski",2021-06-01,€241.64,Wire,Deposit,,Conversion
,Quantum,"Frank Mayer",2021-06-01,"€5,000.00",ETH,Withdrawal,Withdrawal,Retention
,Quantum,"Valentina Blanke",2021-06-01,€263.85,BTC,Withdrawal,Withdrawal,Retention
,Quantum,"Jake Avant",2021-06-02,€247.00,BTC,Deposit,,Conversion
,Quantum,"Valentina Blanke",2021-06-02,"€48,158.32",ETH,Deposit,,Retention
,Quantum,"Frank Mayer",2021-06-03,"€2,002.35",BTC,Withdrawal,Withdrawal,Retention
,Quantum,"Valentina Blanke",2021-06-07,€250.00,"CC - Bridgerpay",Deposit,,Retention
,Quantum,"Valentina Blanke",2021-06-07,€250.00,"CC - Bridgerpay",Deposit,,Retention
,Quantum,"Valentina Blanke",2021-06-07,€500.00,"CC - Bridgerpay",Deposit,,Retention
,Quantum,"Lina Becker",2021-06-07,"€6,686.01",BTC,Deposit,,Retention
,Quantum,"Retention Trash",2021-06-07,€260.00,Xpate,Withdrawal,Refund,Retention
,Quantum,"Frank Mayer",2021-06-07,€501.64,BTC,Withdrawal,Withdrawal,Retention
,Quantum,"Jake Avant",2021-06-08,€250.00,"CC - Bridgerpay",Deposit,,Conversion
,Quantum,"Frank Mayer",2021-06-08,"€1,001.04",BTC,Withdrawal,Withdrawal,Retention
,Quantum,"William Johns",2021-06-08,"€2,867.36",BTC,Deposit,,Retention
,Quantum,"Jake Avant",2021-06-08,€250.00,"Coini Exchange",Deposit,,Conversion
,Quantum,"Jake Avant",2021-06-08,€250.00,"Coini Exchange",Deposit,,Conversion
,Quantum,"Jake Avant",2021-06-09,€250.00,"Coini Exchange",Deposit,,Conversion
,Quantum,"Anna Engel",2021-06-09,"€2,510.14",ETH,Deposit,,Retention
,Quantum,"Anna Engel",2021-06-09,"€4,773.98",BTC,Deposit,,Retention
,Quantum,"Burak Freeman",2021-06-10,"€1,001.74",BTC,Withdrawal,Withdrawal,Retention
,Quantum,"Ryan Cross",2021-06-10,€250.00,"Coini Exchange",Deposit,,Conversion
,Quantum,"Peter Skawinski",2021-06-10,€301.51,BTC,Withdrawal,Withdrawal,Retention
,Quantum,"Anna Engel",2021-06-10,"€30,334.99",ETH,Deposit,,Retention
,Quantum,"Valentina Blanke",2021-06-10,"€3,624.33",ETH,Deposit,,Retention
,Quantum,"Matt Baas",2021-06-11,€250.00,"Coini Exchange",Deposit,,Conversion
,Quantum,"Burak Freeman",2021-06-11,"€48,469.96",BTC,Deposit,,Retention
,Quantum,"Jake Avant",2021-06-11,€250.00,"Coini Exchange",Deposit,,Conversion
,Quantum,"Peter Skawinski",2021-06-11,"€2,976.90",BTC,Deposit,,Retention
,Quantum,"Jake Avant",2021-06-10,€250.00,Wire,Deposit,,Conversion
,Quantum,"Jake Avant",2021-06-14,€250.00,"Coini Exchange",Deposit,,Conversion
,Quantum,"Jake Avant",2021-06-14,€235.16,BTC,Deposit,,Conversion
,Quantum,"Burak Freeman",2021-06-14,"€47,014.51",BTC,Deposit,,Retention
,Quantum,"Anna Engel",2021-06-14,"€1,002.77",BTC,Withdrawal,Withdrawal,Retention
,Quantum,"Jake Avant",2021-06-15,€250.00,"Coini Exchange",Deposit,,Conversion
,Quantum,"Jake Avant",2021-06-15,€250.00,"CC - Bridgerpay",Deposit,,Conversion
,Quantum,"Matt Baas",2021-06-15,€250.00,"CC - Bridgerpay",Deposit,,Conversion
,Quantum,"Ryan Cross",2021-06-15,€250.00,"Coini Exchange",Deposit,,Conversion
,Quantum,"Jake Avant",2021-06-16,€250.00,"Coini Exchange",Deposit,,Conversion
,Quantum,"Jake Avant",2021-06-17,€250.00,"Coini Exchange",Deposit,,Conversion
,Quantum,"Burak Freeman",2021-06-17,"€1,501.65",BTC,Withdrawal,Withdrawal,Retention
,Quantum,"Jake Avant",2021-06-17,€250.00,"Coini Exchange",Deposit,,Conversion
,Quantum,"Matt Baas",2021-06-17,€250.00,"Coini Exchange",Deposit,,Conversion
,Quantum,"William Johns",2021-06-17,€500.00,"CC - Bridgerpay",Deposit,,Retention
,Quantum,"Ryan Cross",2021-06-17,€250.00,"Coini Exchange",Deposit,,Conversion
,Quantum,"Matt Baas",2021-06-17,€250.00,"Coini Exchange",Deposit,,Conversion
,Quantum,"Anna Engel",2021-06-18,€441.43,BTC,Withdrawal,Withdrawal,Retention
,Quantum,"Burak Freeman",2021-06-18,"€78,039.19",BTC,Deposit,,Retention
,Quantum,"Ryan Cross",2021-06-18,€250.00,"Coini Exchange",Deposit,,Conversion
,Quantum,"Jake Avant",2021-06-21,€250.00,Wire,Deposit,,Conversion
,Quantum,"Jake Avant",2021-06-21,€250.00,"Coini Exchange",Deposit,,Conversion
,Quantum,"Valentina Blanke",2021-06-21,€499.77,BTC,Deposit,,Retention
,Quantum,"William Johns",2021-06-22,€965.02,BTC,Deposit,,Retention
,Quantum,"Matt Baas",2021-06-22,€207.84,Jubiter,Deposit,,Conversion
,Quantum,"Anna Engel",2021-06-22,"€4,983.82",BTC,Deposit,,Retention
,Quantum,"Jake Avant",2021-06-22,€250.00,BTC,Deposit,,Conversion
,Quantum,"Matt Baas",2021-06-22,€250.00,BTC,Deposit,,Conversion
,Quantum,"Ryan Cross",2021-06-23,€250.00,"Coini Exchange",Deposit,,Conversion
,Quantum,"Peter Skawinski",2021-06-23,"€6,973.33",BTC,Deposit,,Retention
,Quantum,"Peter Skawinski",2021-06-22,"€1,067.28",BTC,Deposit,,Retention
,Quantum,"Matt Baas",2021-06-23,€250.00,"Coini Exchange",Deposit,,Conversion
,Quantum,"Jake Avant",2021-06-23,€250.00,BTC,Deposit,,Conversion
,Quantum,"Ryan Cross",2021-06-24,€500.00,Wire,Deposit,,Conversion
,Quantum,"Frank Mayer",2021-06-24,"€9,984.38",ETH,Deposit,,Retention
,Quantum,"Lina Becker",2021-06-24,"€1,000.00",Wire,Deposit,,Retention
,Quantum,"Jake Avant",2021-06-24,€250.00,Wire,Deposit,,Conversion
,Quantum,"Retention Trash",2021-06-24,€322.71,BTC,Withdrawal,Refund,Retention
,Quantum,"Valentina Blanke",2021-06-24,€961.44,BTC,Deposit,,Retention
,Quantum,"Valentina Blanke",2021-06-24,"€3,082.47",BTC,Deposit,,Retention
,Quantum,"Jake Avant",2021-06-24,€210.02,Jubiter,Deposit,,Conversion
,Quantum,"Ryan Cross",2021-06-24,€250.00,"Coini Exchange",Deposit,,Conversion
,Quantum,"Matt Baas",2021-06-24,€210.68,Jubiter,Deposit,,Conversion
,Quantum,"Ryan Cross",2021-06-24,€250.00,"Coini Exchange",Deposit,,Conversion
,Quantum,"William Johns",2021-06-25,"€1,273.40",BTC,Withdrawal,Withdrawal,Retention
,Quantum,"Matt Baas",2021-06-25,€250.00,Wire,Deposit,,Conversion
,Quantum,"Retention Trash",2021-06-25,€319.45,BTC,Withdrawal,Refund,Retention
,Quantum,"Burak Freeman",2021-06-25,€763.43,BTC,Deposit,,Retention
,Quantum,"William Johns",2021-06-28,"€1,273.40",BTC,Withdrawal,Withdrawal,Retention
,Quantum,"Eva Belova",2021-06-28,€512.17,BTC,Deposit,,Retention
,Quantum,"Matt Baas",2021-06-28,€250.00,"Coini Exchange",Deposit,,Conversion
,Quantum,"Valentina Blanke",2021-06-28,€230.94,BTC,Deposit,,Retention
,Quantum,"Jake Avant",2021-06-28,€250.00,"CC - Bridgerpay",Deposit,,Conversion
,Quantum,"Eva Belova",2021-06-28,€491.79,BTC,Deposit,,Retention
,Quantum,"Retention Trash",2021-06-25,€250.00,Xpate,Withdrawal,Refund,Retention
,Quantum,"Ryan Cross",2021-06-28,€207.87,Jubiter,Deposit,,Conversion
,Quantum,"Ryan Cross",2021-06-29,€250.00,"CC - Bridgerpay",Deposit,,Conversion
,Quantum,"Matt Baas",2021-06-29,€250.00,,Deposit,,Conversion
,Quantum,"Jake Avant",2021-06-29,€250.00,Jubiter,Deposit,,Conversion
,Quantum,"Matt Baas",2021-06-29,€250.00,"Coini Exchange",Deposit,,Conversion
,Quantum,"Frank Mayer",2021-06-29,"€99,768.49",BTC,Deposit,,Retention
,Quantum,"Ryan Cross",2021-06-29,€250.00,"CC - Bridgerpay",Deposit,,Conversion
,Quantum,"Matt Baas",2021-06-29,€250.00,"Coini Exchange",Deposit,,Conversion
,Quantum,"Jake Avant",2021-06-29,€250.00,"CC - Bridgerpay",Deposit,,Conversion
,Quantum,"Ryan Cross",2021-06-29,€250.00,"Coini Exchange",Deposit,,Conversion
,Quantum,"Jake Avant",2021-06-30,€250.00,"Coini Exchange",Deposit,,Conversion
,Quantum,"Matt Baas",2021-06-29,€208.53,Jubiter,Deposit,,Conversion
,Quantum,"Gabriel Orlowski",2021-06-29,€208.28,Jubiter,Deposit,,Conversion
,Quantum,"Ryan Cross",2021-06-30,€250.00,"Coini Exchange",Deposit,,Conversion
,Quantum,"Jake Avant",2021-06-30,€250.00,"CC - Bridgerpay",Deposit,,Conversion
,Quantum,"Jake Avant",2021-06-30,€254.00,"CC - Bridgerpay",Deposit,,Conversion
,Quantum,"Ryan Cross",2021-06-30,€250.00,"Coini Exchange",Deposit,,Conversion
,Quantum,"William Johns",2021-06-30,"€1,252.15",BTC,Deposit,,Retention
,Quantum,"Matt Baas",2021-06-30,€250.00,"Coini Exchange",Deposit,,Conversion
,Quantum,"William Johns",2021-07-01,"€3,603.33",BTC,Deposit,,Retention
,Quantum,"Gabriel Orlowski",2021-06-30,€250.00,"Coini Exchange",Deposit,,Conversion
,Quantum,"Eva Belova",2021-07-01,€961.02,BTC,Deposit,,Retention
,Quantum,"Ryan Cross",2021-07-01,€500.00,"CC - Bridgerpay",Deposit,,Conversion
,Quantum,"Retention Trash",2021-07-01,€242.50,BTC,Withdrawal,Refund,Retention
,Quantum,"Retention Trash",2021-07-01,€270.41,BTC,Withdrawal,Refund,Retention
,Quantum,"Tony Rickars",2021-07-01,€250.00,"Coini Exchange",Deposit,,Conversion
,Quantum,"Matt Baas",2021-07-01,€270.00,Wire,Deposit,,Conversion
,Quantum,"Matt Baas",2021-07-01,€250.00,"Coini Exchange",Deposit,,Conversion
,Quantum,"Jake Avant",2021-07-01,€250.00,"CC - Bridgerpay",Deposit,,Conversion
,Quantum,"Ryan Cross",2021-07-02,€252.42,Wire,Deposit,,Conversion
,Quantum,"Jake Avant",2021-07-02,€250.00,"Coini Exchange",Deposit,,Conversion
,Quantum,"Retention Trash",2021-07-02,€53.60,BTC,Withdrawal,Withdrawal,Retention
,Quantum,"Tony Rickars",2021-07-02,€250.00,"CC - Bridgerpay",Deposit,,Conversion
,Quantum,"Burak Freeman",2021-07-02,"€2,379.20",BTC,Deposit,,Retention
,Quantum,"Tony Rickars",2021-07-02,€250.00,"Coini Exchange",Deposit,,Conversion
,Quantum,"Matt Baas",2021-07-02,€250.00,"Coini Exchange",Deposit,,Conversion
,Quantum,"Ryan Cross",2021-07-05,€250.00,"CC - Bridgerpay",Deposit,,Conversion
,Quantum,"Burak Freeman",2021-07-05,"€1,503.93",BTC,Withdrawal,Withdrawal,Retention
,Quantum,"Burak Freeman",2021-07-06,"€5,010.25",BTC,Withdrawal,Withdrawal,Retention
,Quantum,"Retention Trash",2021-07-06,€53.95,BTC,Withdrawal,Withdrawal,Retention
,Quantum,"Matt Baas",2021-07-06,€250.00,"Coini Exchange",Deposit,,Conversion
,Quantum,"Oliver Krol",2021-07-06,€250.00,"Coini Exchange",Deposit,,Conversion
,Quantum,"Anna Engel",2021-07-06,€205.96,BTC,Withdrawal,Withdrawal,Retention
,Quantum,"Burak Freeman",2021-07-07,"€50,007.46",BTC,Deposit,,Retention
,Quantum,"Retention Trash",2021-07-07,€105.36,BTC,Withdrawal,Withdrawal,Retention
,Quantum,"Mariah Moore",2021-07-08,€250.00,Wire,Deposit,,Conversion
,Quantum,"Anna Engel",2021-07-08,"€15,000.00",Wire,Deposit,,Retention
,Quantum,"Matt Cooper",2021-07-08,€250.00,"CC - Bridgerpay",Deposit,,Conversion
,Quantum,"Matt Cooper",2021-07-09,€250.00,"CC - Bridgerpay",Deposit,,Conversion
,Quantum,"Peter Skawinski",2021-07-09,"€13,764.71",ETH,Deposit,,Retention
,Quantum,"Tony Rickars",2021-07-09,€250.00,"Coini Exchange",Deposit,,Conversion
,Quantum,"Matt Cooper",2021-07-12,€250.00,"CC - Bridgerpay",Deposit,,Conversion
,Quantum,"Matt Cooper",2021-07-13,€211.93,Jubiter,Deposit,,Conversion
,Quantum,"Matt Cooper",2021-07-13,€230.04,BTC,Deposit,,Conversion
,Quantum,"Eva Belova",2021-07-13,"€2,301.07",BTC,Withdrawal,Withdrawal,Retention
,Quantum,"Burak Freeman",2021-07-13,€101.62,BTC,Withdrawal,Withdrawal,Retention
,Quantum,"Tony Rickars",2021-07-13,€250.00,Texcent,Deposit,,Conversion
,Quantum,"Burak Freeman",2021-07-13,"€2,333.18",BTC,Deposit,,Retention
,Quantum,"Eva Belova",2021-07-13,"€2,273.86",BTC,Deposit,,Retention
,Quantum,"Mariah Moore",2021-07-13,€250.00,Texcent,Deposit,,Conversion
,Quantum,"Valentina Blanke",2021-07-13,"€10,000.00",Wire,Deposit,,Retention
,Quantum,"Goran Becher",2021-07-13,€231.61,BTC,Deposit,,Conversion
,Quantum,"Matt Cooper",2021-07-14,€250.00,Texcent,Deposit,,Conversion
,Quantum,"Burak Freeman",2021-07-14,"€9,046.25",BTC,Deposit,,Retention
,Quantum,"Goran Becher",2021-07-15,€211.11,Texcent,Deposit,,Conversion
,Quantum,"Peter Skawinski",2021-07-15,"€3,087.15",BTC,Deposit,,Retention
,Quantum,"Goran Becher",2021-07-15,€234.54,Safello,Deposit,,Conversion
,Quantum,"Burak Freeman",2021-07-15,"€10,817.00",BTC,Deposit,,Retention
,Quantum,"Eva Belova",2021-07-15,"€2,387.73",BTC,Deposit,,Retention
,Quantum,"Matt Cooper",2021-07-15,€231.91,BTC,Deposit,,Conversion
,Quantum,"Goran Becher",2021-07-15,€234.14,BTC,Deposit,,Conversion
,Quantum,"Burak Freeman",2021-07-15,"€9,917.56",BTC,Deposit,,Retention
,Quantum,"Matt Cooper",2021-07-16,€231.47,Safello,Deposit,,Conversion
,Quantum,"Goran Becher",2021-07-16,€250.00,Texcent,Deposit,,Conversion
,Quantum,"Matt Cooper",2021-07-16,€500.00,Safello,Deposit,,Conversion
,Quantum,"Goran Becher",2021-07-16,€250.00,Safello,Deposit,,Conversion
,Quantum,"Eva Belova",2021-07-16,"€5,243.12",ETH,Deposit,,Retention
213,Quantum,"Retention Trash",2021-07-20,€123.00,,Deposit,,Retention
47895,Quantum,"Retention Trash",2021-07-20,€123.00,"Coini Exchange",Deposit,,Retention
